[gd_scene load_steps=3 format=3 uid="uid://byxgtfabnbkqf"]

[ext_resource type="Script" path="res://addons/time_series_plot/tsp.gd" id="1_54v2s"]
[ext_resource type="Resource" uid="uid://dbe7ik5dqn26x" path="res://addons/time_series_plot/tsp_dark.tres" id="2_m8w8b"]

[node name="TimeSeriesPlot" type="Control"]
layout_mode = 3
anchors_preset = 15
anchor_right = 1.0
anchor_bottom = 1.0
offset_right = -415.0
offset_bottom = -228.0
grow_horizontal = 2
grow_vertical = 2
size_flags_vertical = 3
script = ExtResource("1_54v2s")
style = ExtResource("2_m8w8b")
title_text = "Chart Title"
legend = {
"data": Color(0.49, 0.725, 0.361, 1)
}
domain_start = 1240092193
domain_end = 1250092193
range_start = 0.0
range_end = 0.0
animate_update_frequency = 0.5
